module bitbucket.org/vithubati/letsgo

go 1.18

require (
	github.com/go-chi/chi/v5 v5.0.8
	github.com/google/uuid v1.3.0
	github.com/gorilla/websocket v1.4.2
	github.com/johnfercher/maroto v0.33.0
	github.com/livekit/protocol v1.0.0
	github.com/livekit/server-sdk-go v0.10.4
	github.com/sendgrid/sendgrid-go v3.13.0+incompatible
	github.com/signintech/gopdf v0.9.2
	github.com/signintech/pdft v0.4.2
	github.com/stretchr/testify v1.8.0
	github.com/vithubati/http-cache v0.0.0-20210120220926-3e2db71bcf52
	golang.org/x/exp v0.0.0-20220613132600-b0d781184e0d
	golang.org/x/sync v0.0.0-20220601150217-0de741cfad7f
)

require (
	github.com/beorn7/perks v1.0.1 // indirect
	github.com/bep/debounce v1.2.0 // indirect
	github.com/boombuler/barcode v1.0.0 // indirect
	github.com/cespare/xxhash/v2 v2.1.2 // indirect
	github.com/davecgh/go-spew v1.1.1 // indirect
	github.com/dgryski/go-rendezvous v0.0.0-20200823014737-9f7001d12a5f // indirect
	github.com/eapache/channels v1.1.0 // indirect
	github.com/eapache/queue v1.1.0 // indirect
	github.com/go-logr/logr v1.2.3 // indirect
	github.com/go-logr/stdr v1.0.0 // indirect
	github.com/go-redis/redis/v8 v8.11.5 // indirect
	github.com/golang/protobuf v1.5.2 // indirect
	github.com/jung-kurt/gofpdf v1.4.2 // indirect
	github.com/jxskiss/base62 v1.1.0 // indirect
	github.com/lithammer/shortuuid/v3 v3.0.7 // indirect
	github.com/magefile/mage v1.13.0 // indirect
	github.com/matttproud/golang_protobuf_extensions v1.0.1 // indirect
	github.com/phpdave11/gofpdi v1.0.5 // indirect
	github.com/pion/datachannel v1.5.2 // indirect
	github.com/pion/dtls/v2 v2.1.5 // indirect
	github.com/pion/ice/v2 v2.2.6 // indirect
	github.com/pion/interceptor v0.1.11 // indirect
	github.com/pion/logging v0.2.2 // indirect
	github.com/pion/mdns v0.0.5 // indirect
	github.com/pion/randutil v0.1.0 // indirect
	github.com/pion/rtcp v1.2.9 // indirect
	github.com/pion/rtp v1.7.13 // indirect
	github.com/pion/sctp v1.8.2 // indirect
	github.com/pion/sdp/v3 v3.0.5 // indirect
	github.com/pion/srtp/v2 v2.0.9 // indirect
	github.com/pion/stun v0.3.5 // indirect
	github.com/pion/transport v0.13.1 // indirect
	github.com/pion/turn/v2 v2.0.8 // indirect
	github.com/pion/udp v0.1.1 // indirect
	github.com/pion/webrtc/v3 v3.1.42 // indirect
	github.com/pkg/errors v0.9.1 // indirect
	github.com/pmezard/go-difflib v1.0.0 // indirect
	github.com/prometheus/client_golang v1.13.0 // indirect
	github.com/prometheus/client_model v0.2.0 // indirect
	github.com/prometheus/common v0.37.0 // indirect
	github.com/prometheus/procfs v0.8.0 // indirect
	github.com/ruudk/golang-pdf417 v0.0.0-20181029194003-1af4ab5afa58 // indirect
	github.com/sendgrid/rest v2.6.9+incompatible // indirect
	github.com/thoas/go-funk v0.9.0 // indirect
	github.com/twitchtv/twirp v8.1.2+incompatible // indirect
	go.uber.org/atomic v1.9.0 // indirect
	golang.org/x/crypto v0.0.0-20220516162934-403b01795ae8 // indirect
	golang.org/x/net v0.0.0-20220531201128-c960675eff93 // indirect
	golang.org/x/sys v0.0.0-20220608164250-635b8c9b7f68 // indirect
	golang.org/x/text v0.3.7 // indirect
	google.golang.org/genproto v0.0.0-20200825200019-8632dd797987 // indirect
	google.golang.org/grpc v1.48.0 // indirect
	google.golang.org/protobuf v1.28.1 // indirect
	gopkg.in/square/go-jose.v2 v2.6.0 // indirect
	gopkg.in/yaml.v3 v3.0.1 // indirect
)
